2
USSR
5
5 100 3000 0 74 11
6 500 0 100 90 90
7 10000 50000 0 40 30
9 30000 20000 90 90 77
13 700 0 0 100 100
Germany
6
10 30000 10000 4000 50 40
3 500000 60000 10000 10 80
4 80000 40000 10000 80 20
8 400 4000 0 75 34
1 100 3000 0 90 20